<?xml version="1.0" encoding="utf-8"?>
<!-- Generator: Adobe Illustrator 19.2.1, SVG Export Plug-In . SVG Version: 6.00 Build 0)  -->
<svg version="1.1" id="logo" x="0px" y="0px"
	xmlns="http://www.w3.org/2000/svg"
	xmlns:xlink="http://www.w3.org/1999/xlink"
	 viewBox="0 0 360 360" style="enable-background:new 0 0 360 360;" xml:space="preserve">
<style type="text/css">
	.st0{fill:#00A69C;}
</style>
<path class="st0" d="M250.8,117.2l26.9-26.9c1.6-1.6,1.6-4.1,0-5.6l-2.8-2.8c-1.6-1.6-4.1-1.6-5.6,0L243.3,108
	c-0.1-0.1-0.2-0.3-0.4-0.4c-22.5-22.5-41.8-33.8-54.7-42.2c-1-0.6-1.7-1.6-2-2.7c-0.8-2.6-3.3-4.5-6.2-4.5c-2.7,0-5,1.6-6,4
	c-0.4,1-1.1,1.8-2.1,2.4c-12.6,7-37.3,21.8-54.8,39.4c-19.5,19.5-31.6,59.9-34.6,70.7c-0.5,1.8-0.5,3.7,0,5.5
	c2.5,9.4,11.5,40.9,26.4,62.3L82.2,269c-1.6,1.6-1.6,4.1,0,5.6l2.8,2.8c1.6,1.6,4.1,1.6,5.6,0l25.8-25.8c0.2,0.2,0.4,0.5,0.7,0.7
	c16.5,16.5,41.7,33.8,54.7,42.2c1,0.6,1.7,1.6,2,2.7c0.8,2.6,3.3,4.5,6.2,4.5c2.7,0,5-1.6,6-3.9c0.4-1,1.2-1.9,2.2-2.4
	c12.6-7,37.3-21.8,54.8-39.4c19.4-19.4,31.5-59.6,34.6-70.6c0.5-1.9,0.5-3.8,0-5.7C275,170.2,265.9,138.5,250.8,117.2z M140.5,206.2
	c0-8.9,1.4-17.3,3.8-24.9c0.3-1.1,0.3-2.2,0-3.3c-2.5-7.5-3.8-16-3.8-24.9c0-31.9,17.7-57.8,39.5-57.8c17.2,0,31.9,16.1,37.3,38.7
	l-76.6,76.6C140.6,209.2,140.5,207.7,140.5,206.2z M215.6,181.2c2.5,7.6,3.9,16,3.9,25c0,31.9-17.7,57.8-39.5,57.8
	c-17.2,0-31.9-16.1-37.3-38.7l76.6-76.6c0.1,1.5,0.1,3,0.1,4.5c0,9-1.4,17.4-3.9,25C215.3,179.2,215.3,180.2,215.6,181.2z"/>
</svg>
