<?xml version="1.0" encoding="UTF-8" standalone="no"?>
<svg
   xmlns:dc="http://purl.org/dc/elements/1.1/"
   xmlns:cc="http://creativecommons.org/ns#"
   xmlns:rdf="http://www.w3.org/1999/02/22-rdf-syntax-ns#"
   xmlns:svg="http://www.w3.org/2000/svg"
   xmlns="http://www.w3.org/2000/svg"
   version="1.1"
   id="svg4166"
   viewBox="0 0 40 40.000001"
   height="40"
   width="40">
  <defs
     id="defs4168" />
  <metadata
     id="metadata4171">
    <rdf:RDF>
      <cc:Work
         rdf:about="">
        <dc:format>image/svg+xml</dc:format>
        <dc:type
           rdf:resource="http://purl.org/dc/dcmitype/StillImage" />
        <dc:title></dc:title>
      </cc:Work>
    </rdf:RDF>
  </metadata>
  <g
     style="stroke:#0050ff;stroke-opacity:1;fill:#0050ff;fill-opacity:1"
     transform="matrix(0.33332033,0,0,0.99957724,-0.00234339,-1011.9143)"
     id="layer1">
    <path
       id="path4200"
       d="m 0.66491047,1016.3976 9.56704753,-3.3977 109.121872,0 0,35.704 -8.91964,2.9935 -109.76927953,0 z"
       style="fill:#0050ff;fill-opacity:1;fill-rule:evenodd;stroke:#0050ff;stroke-width:1.31966913px;stroke-linecap:butt;stroke-linejoin:miter;stroke-opacity:1" />
    <text
       id="text4742"
       y="1046.9032"
       x="101.19141"
       style="font-style:normal;font-variant:normal;font-weight:bold;font-stretch:normal;font-size:40px;line-height:125%;font-family:sans-serif;-inkscape-font-specification:'sans-serif Bold';text-align:center;letter-spacing:0px;word-spacing:0px;text-anchor:middle;fill:#0050ff;fill-opacity:1;stroke:#0050ff;stroke-width:1px;stroke-linecap:butt;stroke-linejoin:miter;stroke-opacity:1"
       xml:space="preserve"><tspan
         y="1046.9032"
         x="59.716797"
         id="tspan4744"
         style="text-align:center;text-anchor:middle;stroke:#0050ff;stroke-opacity:1;fill:#0050ff;fill-opacity:1" /></text>
  </g>
  <text
     id="text5261"
     y="32.919922"
     x="19.726563"
     style="font-style:normal;font-weight:normal;font-size:35px;line-height:125%;font-family:sans-serif;text-align:center;letter-spacing:0px;word-spacing:0px;text-anchor:middle;fill:#ffffff;fill-opacity:1;stroke:#ffffff;stroke-width:1px;stroke-linecap:butt;stroke-linejoin:miter;stroke-opacity:1"
     xml:space="preserve"><tspan
       y="32.919922"
       x="19.726563"
       id="tspan5263">自</tspan></text>
</svg>
